%YAML 1.1
%TAG !u! tag:unity3d.com,2011:
--- !u!114 &11400000
MonoBehaviour:
  m_ObjectHideFlags: 0
  m_CorrespondingSourceObject: {fileID: 0}
  m_PrefabInstance: {fileID: 0}
  m_PrefabAsset: {fileID: 0}
  m_GameObject: {fileID: 0}
  m_Enabled: 1
  m_EditorHideFlags: 0
  m_Script: {fileID: 11500000, guid: be109628247297e46b53443465460928, type: 3}
  m_Name: Level_29
  m_EditorClassIdentifier: 
  level: 29
  isLevelBlock: 0
  waveSetups:
  - {fileID: 11400000, guid: 87df5afb3e7c7d840844567a835b5d98, type: 2}
  - {fileID: 11400000, guid: 1a4d03eb15fc00b48afbae8d27788d53, type: 2}
  - {fileID: 11400000, guid: b83fedda7d5fc5b4ab9f0fb705e177ad, type: 2}
  - {fileID: 11400000, guid: c87ce89655c222f44946ec8314a8949e, type: 2}
  - {fileID: 11400000, guid: 7ef83b854d68c8349b97c7803db3d0d8, type: 2}
  - {fileID: 11400000, guid: 54a760920399f524980f92d4628f113e, type: 2}
  - {fileID: 11400000, guid: f832bf01d7d829e4394dde0bdefcbbb2, type: 2}
  - {fileID: 11400000, guid: 533411e1089661948ae293f204028366, type: 2}
  - {fileID: 11400000, guid: 3ed32d145e3be1b47843266088c95044, type: 2}
  listEndlessWave: []
