
skeleton.png
size: 992,992
format: RGBA8888
filter: Linear,Linear
repeat: none
lamp
  rotate: false
  xy: 802, 752
  size: 187, 237
  orig: 187, 237
  offset: 0, 0
  index: -1
light
  rotate: false
  xy: 2, 560
  size: 798, 429
  orig: 864, 472
  offset: 33, 43
  index: -1
