%YAML 1.1
%TAG !u! tag:unity3d.com,2011:
--- !u!114 &11400000
MonoBehaviour:
  m_ObjectHideFlags: 0
  m_CorrespondingSourceObject: {fileID: 0}
  m_PrefabInstance: {fileID: 0}
  m_PrefabAsset: {fileID: 0}
  m_GameObject: {fileID: 0}
  m_Enabled: 1
  m_EditorHideFlags: 0
  m_Script: {fileID: 11500000, guid: a7a30fe9234449649b4aa4a91c9effbc, type: 3}
  m_Name: BulletBounc
  m_EditorClassIdentifier: 
  booster: 10
  type: 0
  icon: {fileID: 21300000, guid: d1bfdf9cd1f81ad4984487b6ae395834, type: 3}
  bg: {fileID: 21300000, guid: 126f700119a99cd46b35fd1c3c5d849a, type: 3}
  nameBooster: Bullets Bounce
  typeBooster: Legend
