%YAML 1.1
%TAG !u! tag:unity3d.com,2011:
--- !u!114 &11400000
MonoBehaviour:
  m_ObjectHideFlags: 0
  m_CorrespondingSourceObject: {fileID: 0}
  m_PrefabInstance: {fileID: 0}
  m_PrefabAsset: {fileID: 0}
  m_GameObject: {fileID: 0}
  m_Enabled: 1
  m_EditorHideFlags: 0
  m_Script: {fileID: 11500000, guid: a7a30fe9234449649b4aa4a91c9effbc, type: 3}
  m_Name: PercentSpeed10
  m_EditorClassIdentifier: 
  booster: 2
  type: 0
  icon: {fileID: 21300000, guid: 719af68945093764388c07d3c75a1d28, type: 3}
  bg: {fileID: 21300000, guid: c24a75281a4042e4cac93779537b36b2, type: 3}
  nameBooster: Attack speed 10%
  typeBooster: 'Rare  '
