%YAML 1.1
%TAG !u! tag:unity3d.com,2011:
--- !u!114 &11400000
MonoBehaviour:
  m_ObjectHideFlags: 0
  m_CorrespondingSourceObject: {fileID: 0}
  m_PrefabInstance: {fileID: 0}
  m_PrefabAsset: {fileID: 0}
  m_GameObject: {fileID: 0}
  m_Enabled: 1
  m_EditorHideFlags: 0
  m_Script: {fileID: 11500000, guid: 5250de57a37911d49b420a287a0f8e75, type: 3}
  m_Name: Wave_9
  m_EditorClassIdentifier: 
  enemyType: 0
  enemyAmount: 14
  enemyID: 670200009102000063020000750200008602000091020000940200008f020000690200006a0200005e020000740200007402000066020000
  isCollectMode: 0
  isValid: 0
  isRandom: 1
  enemyFirst: 623
