%YAML 1.1
%TAG !u! tag:unity3d.com,2011:
--- !u!114 &11400000
MonoBehaviour:
  m_ObjectHideFlags: 0
  m_CorrespondingSourceObject: {fileID: 0}
  m_PrefabInstance: {fileID: 0}
  m_PrefabAsset: {fileID: 0}
  m_GameObject: {fileID: 0}
  m_Enabled: 1
  m_EditorHideFlags: 0
  m_Script: {fileID: 11500000, guid: 5250de57a37911d49b420a287a0f8e75, type: 3}
  m_Name: Wave_5
  m_EditorClassIdentifier: 
  enemyType: 0
  enemyAmount: 10
  enemyID: 86020000770200006b0200008c020000850200008b0200006802000097020000930200006a020000
  isCollectMode: 0
  isValid: 0
  isRandom: 1
  enemyFirst: 625
