%YAML 1.1
%TAG !u! tag:unity3d.com,2011:
--- !u!74 &7400000
AnimationClip:
  m_ObjectHideFlags: 0
  m_CorrespondingSourceObject: {fileID: 0}
  m_PrefabInstance: {fileID: 0}
  m_PrefabAsset: {fileID: 0}
  m_Name: Boss_3_Attack
  serializedVersion: 6
  m_Legacy: 0
  m_Compressed: 0
  m_UseHighQualityCurve: 1
  m_RotationCurves: []
  m_CompressedRotationCurves: []
  m_EulerCurves: []
  m_PositionCurves: []
  m_ScaleCurves: []
  m_FloatCurves: []
  m_PPtrCurves:
  - curve:
    - time: 0
      value: {fileID: 21300000, guid: c613784d9e9fb8f46aa6e1783f606957, type: 3}
    - time: 0.033333335
      value: {fileID: 21300000, guid: 69da9bfffe6c2a4408cff6596f5114f9, type: 3}
    - time: 0.06666667
      value: {fileID: 21300000, guid: 0537127917550d2408288f8d8f7f032d, type: 3}
    - time: 0.1
      value: {fileID: 21300000, guid: 42a7f7226d9c9434fb64f4e031abb582, type: 3}
    - time: 0.13333334
      value: {fileID: 21300000, guid: 4b8adc1ab0b51d241bdcd417dfa81acd, type: 3}
    - time: 0.16666667
      value: {fileID: 21300000, guid: b652bf1c0b87de945bf5107c8aa453f4, type: 3}
    - time: 0.2
      value: {fileID: 21300000, guid: 763c27f1c5cffb54e84f3992e60fbb5d, type: 3}
    - time: 0.23333333
      value: {fileID: 21300000, guid: 1b925875cbcd0ea489da87b483ac8d76, type: 3}
    - time: 0.26666668
      value: {fileID: 21300000, guid: dcb309e0dfd06fe478558f143e8b6ee8, type: 3}
    - time: 0.3
      value: {fileID: 21300000, guid: 3edcbec828fbba9448fb820d689fc0a6, type: 3}
    - time: 0.33333334
      value: {fileID: 21300000, guid: 95ec238ba3d20e74a84c530a3989aeb1, type: 3}
    - time: 0.36666667
      value: {fileID: 21300000, guid: 636558b364987574285374cfb1d85376, type: 3}
    - time: 0.4
      value: {fileID: 21300000, guid: 398718ef125c2614abe54015ac2cb43c, type: 3}
    - time: 0.43333334
      value: {fileID: 21300000, guid: 99ec2fde564e8814dad7006613244fce, type: 3}
    - time: 0.46666667
      value: {fileID: 21300000, guid: a3b9d563e110df249aa7f8d95cbf7a5e, type: 3}
    - time: 0.5
      value: {fileID: 21300000, guid: 6ae72db2af034d54f9e2d75c1691ba69, type: 3}
    - time: 0.53333336
      value: {fileID: 21300000, guid: 43d67637c8a58084da5fd5cf6f687e58, type: 3}
    - time: 0.56666666
      value: {fileID: 21300000, guid: f4d4beda045355b44864544dbb8bad8f, type: 3}
    - time: 0.6
      value: {fileID: 21300000, guid: 011fc20b091265d45aa147baf4cd0170, type: 3}
    - time: 0.6333333
      value: {fileID: 21300000, guid: aff5b820bae5f6946b0ff583d67115dc, type: 3}
    - time: 0.6666667
      value: {fileID: 21300000, guid: 83eaa920690c7f6458d6ec2f76e430e2, type: 3}
    - time: 0.7
      value: {fileID: 21300000, guid: 021accc6c25ec8d4a9ce28a98d6a32c6, type: 3}
    - time: 0.73333335
      value: {fileID: 21300000, guid: 42fdfd64d7e4560479863188eab8404f, type: 3}
    - time: 0.76666665
      value: {fileID: 21300000, guid: ece92ab71339d5642b2b7a53198256ee, type: 3}
    - time: 0.8
      value: {fileID: 21300000, guid: 3ce5c2d831b58ff4ebbb27aaa35e1eec, type: 3}
    - time: 0.8333333
      value: {fileID: 21300000, guid: c0f6ecfae1a991c4da5a664351cbd033, type: 3}
    - time: 0.8666667
      value: {fileID: 21300000, guid: b8f85a3718f70ef46899b56c38e5e52d, type: 3}
    - time: 0.9
      value: {fileID: 21300000, guid: ae2bdfc93b3e9444c95536c0cfd692be, type: 3}
    - time: 0.93333334
      value: {fileID: 21300000, guid: 86770656968f64245a8e4ba91b4633c4, type: 3}
    - time: 0.96666664
      value: {fileID: 21300000, guid: d3057bc610c44dd48a59f642162056fd, type: 3}
    - time: 1
      value: {fileID: 21300000, guid: bafd75d49746a904bb2426ba2611a7af, type: 3}
    - time: 1.0333333
      value: {fileID: 21300000, guid: 54dc57f2e5ff39948a62513b103011f3, type: 3}
    - time: 1.0666667
      value: {fileID: 21300000, guid: dc15374d09f2e4c448efca1fd68c1b92, type: 3}
    - time: 1.1
      value: {fileID: 21300000, guid: 34e033f9711a36248be65f25dd8fbc3c, type: 3}
    - time: 1.1333333
      value: {fileID: 21300000, guid: ed3ffbfbfe7205343816cc4720cf72fc, type: 3}
    - time: 1.1666666
      value: {fileID: 21300000, guid: fdd5cb94181796749b6ceeaa31a96933, type: 3}
    attribute: m_Sprite
    path: 
    classID: 212
    script: {fileID: 0}
  m_SampleRate: 30
  m_WrapMode: 0
  m_Bounds:
    m_Center: {x: 0, y: 0, z: 0}
    m_Extent: {x: 0, y: 0, z: 0}
  m_ClipBindingConstant:
    genericBindings:
    - serializedVersion: 2
      path: 0
      attribute: 0
      script: {fileID: 0}
      typeID: 212
      customType: 23
      isPPtrCurve: 1
    pptrCurveMapping:
    - {fileID: 21300000, guid: c613784d9e9fb8f46aa6e1783f606957, type: 3}
    - {fileID: 21300000, guid: 69da9bfffe6c2a4408cff6596f5114f9, type: 3}
    - {fileID: 21300000, guid: 0537127917550d2408288f8d8f7f032d, type: 3}
    - {fileID: 21300000, guid: 42a7f7226d9c9434fb64f4e031abb582, type: 3}
    - {fileID: 21300000, guid: 4b8adc1ab0b51d241bdcd417dfa81acd, type: 3}
    - {fileID: 21300000, guid: b652bf1c0b87de945bf5107c8aa453f4, type: 3}
    - {fileID: 21300000, guid: 763c27f1c5cffb54e84f3992e60fbb5d, type: 3}
    - {fileID: 21300000, guid: 1b925875cbcd0ea489da87b483ac8d76, type: 3}
    - {fileID: 21300000, guid: dcb309e0dfd06fe478558f143e8b6ee8, type: 3}
    - {fileID: 21300000, guid: 3edcbec828fbba9448fb820d689fc0a6, type: 3}
    - {fileID: 21300000, guid: 95ec238ba3d20e74a84c530a3989aeb1, type: 3}
    - {fileID: 21300000, guid: 636558b364987574285374cfb1d85376, type: 3}
    - {fileID: 21300000, guid: 398718ef125c2614abe54015ac2cb43c, type: 3}
    - {fileID: 21300000, guid: 99ec2fde564e8814dad7006613244fce, type: 3}
    - {fileID: 21300000, guid: a3b9d563e110df249aa7f8d95cbf7a5e, type: 3}
    - {fileID: 21300000, guid: 6ae72db2af034d54f9e2d75c1691ba69, type: 3}
    - {fileID: 21300000, guid: 43d67637c8a58084da5fd5cf6f687e58, type: 3}
    - {fileID: 21300000, guid: f4d4beda045355b44864544dbb8bad8f, type: 3}
    - {fileID: 21300000, guid: 011fc20b091265d45aa147baf4cd0170, type: 3}
    - {fileID: 21300000, guid: aff5b820bae5f6946b0ff583d67115dc, type: 3}
    - {fileID: 21300000, guid: 83eaa920690c7f6458d6ec2f76e430e2, type: 3}
    - {fileID: 21300000, guid: 021accc6c25ec8d4a9ce28a98d6a32c6, type: 3}
    - {fileID: 21300000, guid: 42fdfd64d7e4560479863188eab8404f, type: 3}
    - {fileID: 21300000, guid: ece92ab71339d5642b2b7a53198256ee, type: 3}
    - {fileID: 21300000, guid: 3ce5c2d831b58ff4ebbb27aaa35e1eec, type: 3}
    - {fileID: 21300000, guid: c0f6ecfae1a991c4da5a664351cbd033, type: 3}
    - {fileID: 21300000, guid: b8f85a3718f70ef46899b56c38e5e52d, type: 3}
    - {fileID: 21300000, guid: ae2bdfc93b3e9444c95536c0cfd692be, type: 3}
    - {fileID: 21300000, guid: 86770656968f64245a8e4ba91b4633c4, type: 3}
    - {fileID: 21300000, guid: d3057bc610c44dd48a59f642162056fd, type: 3}
    - {fileID: 21300000, guid: bafd75d49746a904bb2426ba2611a7af, type: 3}
    - {fileID: 21300000, guid: 54dc57f2e5ff39948a62513b103011f3, type: 3}
    - {fileID: 21300000, guid: dc15374d09f2e4c448efca1fd68c1b92, type: 3}
    - {fileID: 21300000, guid: 34e033f9711a36248be65f25dd8fbc3c, type: 3}
    - {fileID: 21300000, guid: ed3ffbfbfe7205343816cc4720cf72fc, type: 3}
    - {fileID: 21300000, guid: fdd5cb94181796749b6ceeaa31a96933, type: 3}
  m_AnimationClipSettings:
    serializedVersion: 2
    m_AdditiveReferencePoseClip: {fileID: 0}
    m_AdditiveReferencePoseTime: 0
    m_StartTime: 0
    m_StopTime: 1.1999999
    m_OrientationOffsetY: 0
    m_Level: 0
    m_CycleOffset: 0
    m_HasAdditiveReferencePose: 0
    m_LoopTime: 1
    m_LoopBlend: 0
    m_LoopBlendOrientation: 0
    m_LoopBlendPositionY: 0
    m_LoopBlendPositionXZ: 0
    m_KeepOriginalOrientation: 0
    m_KeepOriginalPositionY: 1
    m_KeepOriginalPositionXZ: 0
    m_HeightFromFeet: 0
    m_Mirror: 0
  m_EditorCurves: []
  m_EulerEditorCurves: []
  m_HasGenericRootTransform: 0
  m_HasMotionFloatCurves: 0
  m_Events: []
