%YAML 1.1
%TAG !u! tag:unity3d.com,2011:
--- !u!114 &11400000
MonoBehaviour:
  m_ObjectHideFlags: 0
  m_CorrespondingSourceObject: {fileID: 0}
  m_PrefabInstance: {fileID: 0}
  m_PrefabAsset: {fileID: 0}
  m_GameObject: {fileID: 0}
  m_Enabled: 1
  m_EditorHideFlags: 0
  m_Script: {fileID: 11500000, guid: c2b2da0d46009ae468b0dbc45f9781f8, type: 3}
  m_Name: Boss_7
  m_EditorClassIdentifier: 
  level: 7
  bossName: 6
  bossId: 3455
  isPass: 4619
  newSkeletonData: {fileID: 11400000, guid: dd48fb919e8db4548a29c5cccabb821f, type: 2}
  Name: 7. Boss Dragon Green
  skin: 1
  scale: {x: 0.4, y: 0.4, z: 0.4}
  pos: {x: 0, y: -158.8, z: 0}
  scaleInReview: {x: 0.2, y: 0.2, z: 0.2}
  posInReview: {x: -7, y: -53, z: 0}
  levelUnlock: 35
  preBoss: 2406
  nextBoss: 0
