%YAML 1.1
%TAG !u! tag:unity3d.com,2011:
--- !u!114 &11400000
MonoBehaviour:
  m_ObjectHideFlags: 0
  m_CorrespondingSourceObject: {fileID: 0}
  m_PrefabInstance: {fileID: 0}
  m_PrefabAsset: {fileID: 0}
  m_GameObject: {fileID: 0}
  m_Enabled: 1
  m_EditorHideFlags: 0
  m_Script: {fileID: 11500000, guid: c2b2da0d46009ae468b0dbc45f9781f8, type: 3}
  m_Name: Boss_2
  m_EditorClassIdentifier: 
  level: 2
  bossName: 1
  bossId: 2404
  isPass: 4614
  newSkeletonData: {fileID: 11400000, guid: c16538be2990d254a93a19d7c27d1c1c, type: 2}
  Name: 2. Boss Toilet Monster
  skin: 1
  scale: {x: 0.5, y: 0.5, z: 0.6}
  pos: {x: 10, y: -190, z: 0}
  scaleInReview: {x: 0.25, y: 0.25, z: 0.2}
  posInReview: {x: 0, y: -110, z: 0}
  levelUnlock: 10
  preBoss: 2402
  nextBoss: 0
