%YAML 1.1
%TAG !u! tag:unity3d.com,2011:
--- !u!114 &11400000
MonoBehaviour:
  m_ObjectHideFlags: 0
  m_CorrespondingSourceObject: {fileID: 0}
  m_PrefabInstance: {fileID: 0}
  m_PrefabAsset: {fileID: 0}
  m_GameObject: {fileID: 0}
  m_Enabled: 1
  m_EditorHideFlags: 0
  m_Script: {fileID: 11500000, guid: c2b2da0d46009ae468b0dbc45f9781f8, type: 3}
  m_Name: Boss_5
  m_EditorClassIdentifier: 
  level: 5
  bossName: 4
  bossId: 2405
  isPass: 4617
  newSkeletonData: {fileID: 11400000, guid: 07c3cb01ab5830c47bd117f96f707959, type: 2}
  Name: 5. Boss Bon Bon
  skin: 1
  scale: {x: 0.12, y: 0.12, z: 0.6}
  pos: {x: -10, y: -190, z: 0}
  scaleInReview: {x: 0.08, y: 0.08, z: 0.2}
  posInReview: {x: -7, y: -110, z: 0}
  levelUnlock: 25
  preBoss: 2401
  nextBoss: 0
