%YAML 1.1
%TAG !u! tag:unity3d.com,2011:
--- !u!114 &11400000
MonoBehaviour:
  m_ObjectHideFlags: 0
  m_CorrespondingSourceObject: {fileID: 0}
  m_PrefabInstance: {fileID: 0}
  m_PrefabAsset: {fileID: 0}
  m_GameObject: {fileID: 0}
  m_Enabled: 1
  m_EditorHideFlags: 0
  m_Script: {fileID: 11500000, guid: c2b2da0d46009ae468b0dbc45f9781f8, type: 3}
  m_Name: Boss_1
  m_EditorClassIdentifier: 
  level: 1
  bossName: 9
  bossId: 2407
  isPass: 4613
  newSkeletonData: {fileID: 11400000, guid: ae4fdbf314d9b934aab9da82acb3199b, type: 2}
  Name: 1. Boss Death
  skin: default
  scale: {x: 0.3, y: 0.3, z: 0.6}
  pos: {x: -20, y: -180, z: 0}
  scaleInReview: {x: 0.25, y: 0.25, z: 0.13}
  posInReview: {x: -10, y: -100, z: 0}
  levelUnlock: 0
  preBoss: 0
  nextBoss: 2408
