%YAML 1.1
%TAG !u! tag:unity3d.com,2011:
--- !u!114 &11400000
MonoBehaviour:
  m_ObjectHideFlags: 0
  m_CorrespondingSourceObject: {fileID: 0}
  m_PrefabInstance: {fileID: 0}
  m_PrefabAsset: {fileID: 0}
  m_GameObject: {fileID: 0}
  m_Enabled: 1
  m_EditorHideFlags: 0
  m_Script: {fileID: 11500000, guid: a6b194f808b1af6499c93410e504af42, type: 3}
  m_Name: G_Atlas
  m_EditorClassIdentifier: 
  atlasFile: {fileID: 4900000, guid: 07641b95b2009364f9084a1ca8d782e8, type: 3}
  materials:
  - {fileID: 2100000, guid: 4b9f33ce6ad8da14683eaec4778b1db3, type: 2}
