%YAML 1.1
%TAG !u! tag:unity3d.com,2011:
--- !u!114 &11400000
MonoBehaviour:
  m_ObjectHideFlags: 0
  m_CorrespondingSourceObject: {fileID: 0}
  m_PrefabInstance: {fileID: 0}
  m_PrefabAsset: {fileID: 0}
  m_GameObject: {fileID: 0}
  m_Enabled: 1
  m_EditorHideFlags: 0
  m_Script: {fileID: 11500000, guid: a6b194f808b1af6499c93410e504af42, type: 3}
  m_Name: lv4_Atlas
  m_EditorClassIdentifier: 
  atlasFile: {fileID: 4900000, guid: 6ad5200e351b7154eb38ba2267dad15f, type: 3}
  materials:
  - {fileID: 2100000, guid: 99e025eea860f0942bd147071c942a7e, type: 2}
