%YAML 1.1
%TAG !u! tag:unity3d.com,2011:
--- !u!114 &11400000
MonoBehaviour:
  m_ObjectHideFlags: 0
  m_CorrespondingSourceObject: {fileID: 0}
  m_PrefabInstance: {fileID: 0}
  m_PrefabAsset: {fileID: 0}
  m_GameObject: {fileID: 0}
  m_Enabled: 1
  m_EditorHideFlags: 0
  m_Script: {fileID: 11500000, guid: 477260fda840ae647a1ad3d0e4691d4a, type: 3}
  m_Name: User
  m_EditorClassIdentifier: 
  defaultItems:
  - item: 1
    value: 1
  - item: 2
    value: 1
  - item: 3
    value: 1
  heroes: {fileID: 11400000, guid: 12a45fa4559059446a50655e2613739b, type: 2}
