%YAML 1.1
%TAG !u! tag:unity3d.com,2011:
--- !u!114 &11400000
MonoBehaviour:
  m_ObjectHideFlags: 0
  m_CorrespondingSourceObject: {fileID: 0}
  m_PrefabInstance: {fileID: 0}
  m_PrefabAsset: {fileID: 0}
  m_GameObject: {fileID: 0}
  m_Enabled: 1
  m_EditorHideFlags: 0
  m_Script: {fileID: 11500000, guid: be109628247297e46b53443465460928, type: 3}
  m_Name: Level_8
  m_EditorClassIdentifier: 
  level: 8
  isLevelBlock: 0
  waveSetups:
  - {fileID: 11400000, guid: 986519d2379a90c43b199f1925b5dc1d, type: 2}
  - {fileID: 11400000, guid: c0baf900ebfef734d9db154e0792dbf9, type: 2}
  - {fileID: 11400000, guid: 0fcd2cea8fd018c4388b2c66693267a7, type: 2}
  - {fileID: 11400000, guid: 986519d2379a90c43b199f1925b5dc1d, type: 2}
  - {fileID: 11400000, guid: c0baf900ebfef734d9db154e0792dbf9, type: 2}
  listEndlessWave: []
