%YAML 1.1
%TAG !u! tag:unity3d.com,2011:
--- !u!114 &11400000
MonoBehaviour:
  m_ObjectHideFlags: 0
  m_CorrespondingSourceObject: {fileID: 0}
  m_PrefabInstance: {fileID: 0}
  m_PrefabAsset: {fileID: 0}
  m_GameObject: {fileID: 0}
  m_Enabled: 1
  m_EditorHideFlags: 0
  m_Script: {fileID: 11500000, guid: a6b194f808b1af6499c93410e504af42, type: 3}
  m_Name: car_Atlas
  m_EditorClassIdentifier: 
  atlasFile: {fileID: 4900000, guid: c55d72023a4e67745ad5e5af1329b53e, type: 3}
  materials:
  - {fileID: 2100000, guid: 1d92e418da0cccb4eab34863eeda1248, type: 2}
  - {fileID: 2100000, guid: 476ea48f15f077c4b8f1046399effc4d, type: 2}
  - {fileID: 2100000, guid: 16dba04293a314b4fb8cb254183548c1, type: 2}
