%YAML 1.1
%TAG !u! tag:unity3d.com,2011:
--- !u!114 &11400000
MonoBehaviour:
  m_ObjectHideFlags: 0
  m_CorrespondingSourceObject: {fileID: 0}
  m_PrefabInstance: {fileID: 0}
  m_PrefabAsset: {fileID: 0}
  m_GameObject: {fileID: 0}
  m_Enabled: 1
  m_EditorHideFlags: 0
  m_Script: {fileID: 11500000, guid: c2b7956e162321a41accb00889af4800, type: 3}
  m_Name: Gun_Level_3
  m_EditorClassIdentifier: 
  gunID: 2802
  gunName: 2
  isUnlock: 0
  itemcell:
    item: 7
    value: 3000
  pieceNeed:
  - IDPiece: 17
    amount: 15
  - IDPiece: 18
    amount: 7
  - IDPiece: 19
    amount: 5
  - IDPiece: 20
    amount: 1
