%YAML 1.1
%TAG !u! tag:unity3d.com,2011:
--- !u!114 &11400000
MonoBehaviour:
  m_ObjectHideFlags: 0
  m_CorrespondingSourceObject: {fileID: 0}
  m_PrefabInstance: {fileID: 0}
  m_PrefabAsset: {fileID: 0}
  m_GameObject: {fileID: 0}
  m_Enabled: 1
  m_EditorHideFlags: 0
  m_Script: {fileID: 11500000, guid: c2b7956e162321a41accb00889af4800, type: 3}
  m_Name: Gun_Level_4
  m_EditorClassIdentifier: 
  gunID: 2803
  gunName: 3
  isUnlock: 0
  itemcell:
    item: 0
    value: 4000
  pieceNeed:
  - IDPiece: 17
    amount: 20
  - IDPiece: 18
    amount: 9
  - IDPiece: 19
    amount: 8
  - IDPiece: 20
    amount: 4
  - IDPiece: 21
    amount: 3
