%YAML 1.1
%TAG !u! tag:unity3d.com,2011:
--- !u!114 &11400000
MonoBehaviour:
  m_ObjectHideFlags: 0
  m_CorrespondingSourceObject: {fileID: 0}
  m_PrefabInstance: {fileID: 0}
  m_PrefabAsset: {fileID: 0}
  m_GameObject: {fileID: 0}
  m_Enabled: 1
  m_EditorHideFlags: 0
  m_Script: {fileID: 11500000, guid: 760244bb872449b499f34984e091a9b0, type: 3}
  m_Name: mask_black
  m_EditorClassIdentifier: 
  skinID: 3610
  skinName: Mask Black
  skinIcon: {fileID: 21300000, guid: a0c22dfc86ad65945b5304f8724be9cc, type: 3}
