%YAML 1.1
%TAG !u! tag:unity3d.com,2011:
--- !u!114 &11400000
MonoBehaviour:
  m_ObjectHideFlags: 0
  m_CorrespondingSourceObject: {fileID: 0}
  m_PrefabInstance: {fileID: 0}
  m_PrefabAsset: {fileID: 0}
  m_GameObject: {fileID: 0}
  m_Enabled: 1
  m_EditorHideFlags: 0
  m_Script: {fileID: 11500000, guid: be109628247297e46b53443465460928, type: 3}
  m_Name: Level_45
  m_EditorClassIdentifier: 
  level: 45
  isLevelBlock: 1
  waveSetups:
  - {fileID: 11400000, guid: 3991f2a7c0b4b1346bbc7da66efa10e0, type: 2}
  - {fileID: 11400000, guid: c489b102b7f87eb4284fea726be9348a, type: 2}
  - {fileID: 11400000, guid: 5c8fe559185b7fc418c30f7b8394f1bb, type: 2}
  - {fileID: 11400000, guid: db99008e27b6cda47939a9affff8c706, type: 2}
  - {fileID: 11400000, guid: 4a38382d58bf4c54ebb19a79ae3386bf, type: 2}
  - {fileID: 11400000, guid: 276c1704d9fe6464b975977065aeab9a, type: 2}
  - {fileID: 11400000, guid: 0bb19a8c9a40d91469186446b88dd285, type: 2}
  - {fileID: 11400000, guid: 4f7fc8b6c386b7a4a90851884a9c9b60, type: 2}
  - {fileID: 11400000, guid: 9f7c32b28ad2df14282f1f50a35bde16, type: 2}
  - {fileID: 11400000, guid: 95f446d677af3964199edfa6bc85ee33, type: 2}
  listEndlessWave: []
