%YAML 1.1
%TAG !u! tag:unity3d.com,2011:
--- !u!114 &11400000
MonoBehaviour:
  m_ObjectHideFlags: 0
  m_CorrespondingSourceObject: {fileID: 0}
  m_PrefabInstance: {fileID: 0}
  m_PrefabAsset: {fileID: 0}
  m_GameObject: {fileID: 0}
  m_Enabled: 1
  m_EditorHideFlags: 0
  m_Script: {fileID: 11500000, guid: be109628247297e46b53443465460928, type: 3}
  m_Name: Level_19
  m_EditorClassIdentifier: 
  level: 19
  isLevelBlock: 0
  waveSetups:
  - {fileID: 11400000, guid: 93737337324dd0e4d8a6e67918eb3338, type: 2}
  - {fileID: 11400000, guid: 303d8622ccbdd414b9fd80646919fe38, type: 2}
  - {fileID: 11400000, guid: ff6b9841d2c3b534c98a5bfa86b0e033, type: 2}
  - {fileID: 11400000, guid: be16691f1e6b90e4489f3a2beca62aa7, type: 2}
  - {fileID: 11400000, guid: 83d36f3910101264c846566ad60fa021, type: 2}
  - {fileID: 11400000, guid: d829dd2a524c58944acad060e3b2ec77, type: 2}
  - {fileID: 11400000, guid: 65e5f61380bfc00419619330f430ca48, type: 2}
  - {fileID: 11400000, guid: ef8edf6789969d441bc78a202cefb8d3, type: 2}
  - {fileID: 11400000, guid: 67460c8cfa9472147a024880867cded3, type: 2}
  listEndlessWave: []
