%YAML 1.1
%TAG !u! tag:unity3d.com,2011:
--- !u!114 &11400000
MonoBehaviour:
  m_ObjectHideFlags: 0
  m_CorrespondingSourceObject: {fileID: 0}
  m_PrefabInstance: {fileID: 0}
  m_PrefabAsset: {fileID: 0}
  m_GameObject: {fileID: 0}
  m_Enabled: 1
  m_EditorHideFlags: 0
  m_Script: {fileID: 11500000, guid: 250cc4bad3351894b88071a69dd919cd, type: 3}
  m_Name: Coin5IAP
  m_EditorClassIdentifier: 
  itemID: 214
  itemcell:
    item: 7
    value: 380000
  spriteIcon: {fileID: 21300000, guid: ee38cb53c883f6748b13a39c3e5ad3bb, type: 3}
  isClaimShop: 1
  index: 0
