%YAML 1.1
%TAG !u! tag:unity3d.com,2011:
--- !u!114 &11400000
MonoBehaviour:
  m_ObjectHideFlags: 0
  m_CorrespondingSourceObject: {fileID: 0}
  m_PrefabInstance: {fileID: 0}
  m_PrefabAsset: {fileID: 0}
  m_GameObject: {fileID: 0}
  m_Enabled: 1
  m_EditorHideFlags: 0
  m_Script: {fileID: 11500000, guid: 5250de57a37911d49b420a287a0f8e75, type: 3}
  m_Name: Wave_5
  m_EditorClassIdentifier: 
  enemyType: 0
  enemyAmount: 10
  enemyID: 8f020000720200005b020000730200005e0200008902000061020000640200006b02000094020000
  isCollectMode: 0
  isValid: 0
  isRandom: 1
  enemyFirst: 625
