%YAML 1.1
%TAG !u! tag:unity3d.com,2011:
--- !u!114 &11400000
MonoBehaviour:
  m_ObjectHideFlags: 0
  m_CorrespondingSourceObject: {fileID: 0}
  m_PrefabInstance: {fileID: 0}
  m_PrefabAsset: {fileID: 0}
  m_GameObject: {fileID: 0}
  m_Enabled: 1
  m_EditorHideFlags: 0
  m_Script: {fileID: 11500000, guid: a6b194f808b1af6499c93410e504af42, type: 3}
  m_Name: dragon3heads_Atlas
  m_EditorClassIdentifier: 
  atlasFile: {fileID: 4900000, guid: 9277e5dd751806d4699731992908dcc3, type: 3}
  materials:
  - {fileID: 2100000, guid: 48182a8ba38292549aa5d344e9e17d3d, type: 2}
