%YAML 1.1
%TAG !u! tag:unity3d.com,2011:
--- !u!114 &11400000
MonoBehaviour:
  m_ObjectHideFlags: 0
  m_CorrespondingSourceObject: {fileID: 0}
  m_PrefabInstance: {fileID: 0}
  m_PrefabAsset: {fileID: 0}
  m_GameObject: {fileID: 0}
  m_Enabled: 1
  m_EditorHideFlags: 0
  m_Script: {fileID: 11500000, guid: a7a30fe9234449649b4aa4a91c9effbc, type: 3}
  m_Name: Strange
  m_EditorClassIdentifier: 
  booster: 18
  type: 1
  icon: {fileID: 21300000, guid: 3f66acd3a044cbe4982374e1a4eb6b93, type: 3}
  bg: {fileID: 0}
  nameBooster: Strange
  typeBooster: 
