%YAML 1.1
%TAG !u! tag:unity3d.com,2011:
--- !u!114 &11400000
MonoBehaviour:
  m_ObjectHideFlags: 0
  m_CorrespondingSourceObject: {fileID: 0}
  m_PrefabInstance: {fileID: 0}
  m_PrefabAsset: {fileID: 0}
  m_GameObject: {fileID: 0}
  m_Enabled: 1
  m_EditorHideFlags: 0
  m_Script: {fileID: 11500000, guid: 5fbdc9925cd0eb34eb70983464f153fb, type: 3}
  m_Name: Boss_fLY
  m_EditorClassIdentifier: 
  enemyStatsNormal:
  - hp: 8000
    atk: 20
  - hp: 9199
    atk: 21
  - hp: 10578
    atk: 22
  - hp: 12164
    atk: 23
  - hp: 13988
    atk: 24
  - hp: 17485
    atk: 25
  - hp: 21856
    atk: 26
  - hp: 27320
    atk: 27
  - hp: 34150
    atk: 28
  - hp: 42687
    atk: 29
  - hp: 53358
    atk: 30
  - hp: 66697
    atk: 31
  - hp: 83371
    atk: 32
  - hp: 104213
    atk: 33
  - hp: 130266
    atk: 34
  - hp: 162832
    atk: 36
  - hp: 203540
    atk: 38
  - hp: 254425
    atk: 40
  - hp: 318031
    atk: 42
  - hp: 397538
    atk: 44
  - hp: 496922
    atk: 46
  - hp: 621152
    atk: 48
  - hp: 776440
    atk: 50
  - hp: 970550
    atk: 52
  - hp: 1213187
    atk: 55
  - hp: 1516483
    atk: 58
  - hp: 1895603
    atk: 61
  - hp: 2369503
    atk: 64
  - hp: 2961878
    atk: 67
  - hp: 3702347
    atk: 71
