%YAML 1.1
%TAG !u! tag:unity3d.com,2011:
--- !u!114 &11400000
MonoBehaviour:
  m_ObjectHideFlags: 0
  m_CorrespondingSourceObject: {fileID: 0}
  m_PrefabInstance: {fileID: 0}
  m_PrefabAsset: {fileID: 0}
  m_GameObject: {fileID: 0}
  m_Enabled: 1
  m_EditorHideFlags: 0
  m_Script: {fileID: 11500000, guid: be109628247297e46b53443465460928, type: 3}
  m_Name: Level_1
  m_EditorClassIdentifier: 
  level: 1
  isLevelBlock: 0
  waveSetups:
  - {fileID: 11400000, guid: d57dedb0ee57ff344a71ef737985d33c, type: 2}
  listEndlessWave: []
