%YAML 1.1
%TAG !u! tag:unity3d.com,2011:
--- !u!114 &11400000
MonoBehaviour:
  m_ObjectHideFlags: 0
  m_CorrespondingSourceObject: {fileID: 0}
  m_PrefabInstance: {fileID: 0}
  m_PrefabAsset: {fileID: 0}
  m_GameObject: {fileID: 0}
  m_Enabled: 1
  m_EditorHideFlags: 0
  m_Script: {fileID: 11500000, guid: a6b194f808b1af6499c93410e504af42, type: 3}
  m_Name: C_Atlas
  m_EditorClassIdentifier: 
  atlasFile: {fileID: 4900000, guid: 3e1b2718e3289c345bd32fa4158f7fcf, type: 3}
  materials:
  - {fileID: 2100000, guid: 4a193c9d19b605c418270941a0a54af6, type: 2}
