%YAML 1.1
%TAG !u! tag:unity3d.com,2011:
--- !u!114 &11400000
MonoBehaviour:
  m_ObjectHideFlags: 0
  m_CorrespondingSourceObject: {fileID: 0}
  m_PrefabInstance: {fileID: 0}
  m_PrefabAsset: {fileID: 0}
  m_GameObject: {fileID: 0}
  m_Enabled: 1
  m_EditorHideFlags: 0
  m_Script: {fileID: 11500000, guid: 6e3e95a05e4c9774397eeeb7bdee8ccb, type: 3}
  m_Name: runback_leg
  m_EditorClassIdentifier: 
  skeletonDataAsset: {fileID: 11400000, guid: b4458f3a6faa25e41884e21e81f0003c, type: 2}
  animationName: runback_leg
