%YAML 1.1
%TAG !u! tag:unity3d.com,2011:
--- !u!114 &11400000
MonoBehaviour:
  m_ObjectHideFlags: 0
  m_CorrespondingSourceObject: {fileID: 0}
  m_PrefabInstance: {fileID: 0}
  m_PrefabAsset: {fileID: 0}
  m_GameObject: {fileID: 0}
  m_Enabled: 1
  m_EditorHideFlags: 0
  m_Script: {fileID: 11500000, guid: be109628247297e46b53443465460928, type: 3}
  m_Name: Level_9
  m_EditorClassIdentifier: 
  level: 9
  isLevelBlock: 1
  waveSetups:
  - {fileID: 11400000, guid: 63940453a74c2bd4da0f9e5bcefd2765, type: 2}
  - {fileID: 11400000, guid: f8c5066c968a03243bb0830b8cf7c1cf, type: 2}
  - {fileID: 11400000, guid: b95d8ea671fb48b4d8b432b1a9325395, type: 2}
  - {fileID: 11400000, guid: 63940453a74c2bd4da0f9e5bcefd2765, type: 2}
  - {fileID: 11400000, guid: f8c5066c968a03243bb0830b8cf7c1cf, type: 2}
  listEndlessWave: []
